%YAML 1.1
%TAG !u! tag:unity3d.com,2011:
--- !u!95 &8869751946694296452
Animator:
  serializedVersion: 3
  m_ObjectHideFlags: 0
  m_CorrespondingSourceObject: {fileID: 0}
  m_PrefabInstance: {fileID: 0}
  m_PrefabAsset: {fileID: 0}
  m_GameObject: {fileID: 8635328716147894485}
  m_Enabled: 1
  m_Avatar: {fileID: 0}
  m_Controller: {fileID: 9100000, guid: 78bbe3340b8202f4ab84fc6d83811d8b, type: 2}
  m_CullingMode: 0
  m_UpdateMode: 0
  m_ApplyRootMotion: 0
  m_LinearVelocityBlending: 0
  m_WarningMessage: 
  m_HasTransformHierarchy: 1
  m_AllowConstantClipSamplingOptimization: 1
  m_KeepAnimatorControllerStateOnDisable: 0
--- !u!1 &8869751946979777432
GameObject:
  m_ObjectHideFlags: 0
  m_CorrespondingSourceObject: {fileID: 0}
  m_PrefabInstance: {fileID: 0}
  m_PrefabAsset: {fileID: 0}
  serializedVersion: 6
  m_Component:
  - component: {fileID: 8869751946979777435}
  m_Layer: 0
  m_Name: SpiritGuide_TheShaman_Male
  m_TagString: Untagged
  m_Icon: {fileID: 0}
  m_NavMeshLayer: 0
  m_StaticEditorFlags: 0
  m_IsActive: 1
--- !u!4 &8869751946979777435
Transform:
  m_ObjectHideFlags: 0
  m_CorrespondingSourceObject: {fileID: 0}
  m_PrefabInstance: {fileID: 0}
  m_PrefabAsset: {fileID: 0}
  m_GameObject: {fileID: 8869751946979777432}
  m_LocalRotation: {x: 0, y: 0, z: 0, w: 1}
  m_LocalPosition: {x: 0, y: 0, z: 0}
  m_LocalScale: {x: 1, y: 1, z: 1}
  m_Children:
  - {fileID: 8979343246803726959}
  m_Father: {fileID: 0}
  m_RootOrder: 0
  m_LocalEulerAnglesHint: {x: 0, y: 0, z: 0}
--- !u!1001 &8869751946495694212
PrefabInstance:
  m_ObjectHideFlags: 0
  serializedVersion: 2
  m_Modification:
    m_TransformParent: {fileID: 8869751946979777435}
    m_Modifications:
    - target: {fileID: -8679921383154817045, guid: f576ab6a7e2c87c4286765dab3a17ddf,
        type: 3}
      propertyPath: m_LocalPosition.x
      value: 0
      objectReference: {fileID: 0}
    - target: {fileID: -8679921383154817045, guid: f576ab6a7e2c87c4286765dab3a17ddf,
        type: 3}
      propertyPath: m_LocalPosition.y
      value: 0.521
      objectReference: {fileID: 0}
    - target: {fileID: -8679921383154817045, guid: f576ab6a7e2c87c4286765dab3a17ddf,
        type: 3}
      propertyPath: m_LocalPosition.z
      value: 0
      objectReference: {fileID: 0}
    - target: {fileID: -8679921383154817045, guid: f576ab6a7e2c87c4286765dab3a17ddf,
        type: 3}
      propertyPath: m_LocalRotation.x
      value: -0
      objectReference: {fileID: 0}
    - target: {fileID: -8679921383154817045, guid: f576ab6a7e2c87c4286765dab3a17ddf,
        type: 3}
      propertyPath: m_LocalRotation.y
      value: -0
      objectReference: {fileID: 0}
    - target: {fileID: -8679921383154817045, guid: f576ab6a7e2c87c4286765dab3a17ddf,
        type: 3}
      propertyPath: m_LocalRotation.z
      value: -0
      objectReference: {fileID: 0}
    - target: {fileID: -8679921383154817045, guid: f576ab6a7e2c87c4286765dab3a17ddf,
        type: 3}
      propertyPath: m_LocalRotation.w
      value: 1
      objectReference: {fileID: 0}
    - target: {fileID: -8679921383154817045, guid: f576ab6a7e2c87c4286765dab3a17ddf,
        type: 3}
      propertyPath: m_RootOrder
      value: 0
      objectReference: {fileID: 0}
    - target: {fileID: -8679921383154817045, guid: f576ab6a7e2c87c4286765dab3a17ddf,
        type: 3}
      propertyPath: m_LocalEulerAnglesHint.x
      value: 0
      objectReference: {fileID: 0}
    - target: {fileID: -8679921383154817045, guid: f576ab6a7e2c87c4286765dab3a17ddf,
        type: 3}
      propertyPath: m_LocalEulerAnglesHint.y
      value: 0
      objectReference: {fileID: 0}
    - target: {fileID: -8679921383154817045, guid: f576ab6a7e2c87c4286765dab3a17ddf,
        type: 3}
      propertyPath: m_LocalEulerAnglesHint.z
      value: 0
      objectReference: {fileID: 0}
    - target: {fileID: -7844598171446187143, guid: f576ab6a7e2c87c4286765dab3a17ddf,
        type: 3}
      propertyPath: m_Materials.Array.data[0]
      value: 
      objectReference: {fileID: 2100000, guid: d0f0843c6ac55d04887d08ae26e5289f, type: 2}
    - target: {fileID: -6474977459499532709, guid: f576ab6a7e2c87c4286765dab3a17ddf,
        type: 3}
      propertyPath: m_Materials.Array.data[0]
      value: 
      objectReference: {fileID: 2100000, guid: d0f0843c6ac55d04887d08ae26e5289f, type: 2}
    - target: {fileID: -3621167661777452750, guid: f576ab6a7e2c87c4286765dab3a17ddf,
        type: 3}
      propertyPath: m_Materials.Array.data[0]
      value: 
      objectReference: {fileID: 2100000, guid: d0f0843c6ac55d04887d08ae26e5289f, type: 2}
    - target: {fileID: -3352864307101016828, guid: f576ab6a7e2c87c4286765dab3a17ddf,
        type: 3}
      propertyPath: m_Materials.Array.data[0]
      value: 
      objectReference: {fileID: 2100000, guid: d0f0843c6ac55d04887d08ae26e5289f, type: 2}
    - target: {fileID: -3278085119844772427, guid: f576ab6a7e2c87c4286765dab3a17ddf,
        type: 3}
      propertyPath: m_Materials.Array.data[0]
      value: 
      objectReference: {fileID: 2100000, guid: d0f0843c6ac55d04887d08ae26e5289f, type: 2}
    - target: {fileID: -3277397483475001672, guid: f576ab6a7e2c87c4286765dab3a17ddf,
        type: 3}
      propertyPath: m_Materials.Array.data[0]
      value: 
      objectReference: {fileID: 2100000, guid: 1879d016620a61f47b93b7953a5c1818, type: 2}
    - target: {fileID: -3271088912263959957, guid: f576ab6a7e2c87c4286765dab3a17ddf,
        type: 3}
      propertyPath: m_Materials.Array.data[0]
      value: 
      objectReference: {fileID: 2100000, guid: d0f0843c6ac55d04887d08ae26e5289f, type: 2}
    - target: {fileID: -2215995692172217164, guid: f576ab6a7e2c87c4286765dab3a17ddf,
        type: 3}
      propertyPath: m_Materials.Array.data[0]
      value: 
      objectReference: {fileID: 2100000, guid: 1879d016620a61f47b93b7953a5c1818, type: 2}
    - target: {fileID: -1299386982258627308, guid: f576ab6a7e2c87c4286765dab3a17ddf,
        type: 3}
      propertyPath: m_Materials.Array.data[0]
      value: 
      objectReference: {fileID: 2100000, guid: d0f0843c6ac55d04887d08ae26e5289f, type: 2}
    - target: {fileID: -1059930233358901133, guid: f576ab6a7e2c87c4286765dab3a17ddf,
        type: 3}
      propertyPath: m_Materials.Array.data[0]
      value: 
      objectReference: {fileID: 2100000, guid: d0f0843c6ac55d04887d08ae26e5289f, type: 2}
    - target: {fileID: -1003805562814477884, guid: f576ab6a7e2c87c4286765dab3a17ddf,
        type: 3}
      propertyPath: m_Materials.Array.data[0]
      value: 
      objectReference: {fileID: 2100000, guid: d0f0843c6ac55d04887d08ae26e5289f, type: 2}
    - target: {fileID: -14398740192187542, guid: f576ab6a7e2c87c4286765dab3a17ddf,
        type: 3}
      propertyPath: m_Materials.Array.data[0]
      value: 
      objectReference: {fileID: 2100000, guid: d0f0843c6ac55d04887d08ae26e5289f, type: 2}
    - target: {fileID: 919132149155446097, guid: f576ab6a7e2c87c4286765dab3a17ddf,
        type: 3}
      propertyPath: m_Name
      value: Full_05
      objectReference: {fileID: 0}
    - target: {fileID: 2573443774594854070, guid: f576ab6a7e2c87c4286765dab3a17ddf,
        type: 3}
      propertyPath: m_Materials.Array.data[0]
      value: 
      objectReference: {fileID: 2100000, guid: d0f0843c6ac55d04887d08ae26e5289f, type: 2}
    - target: {fileID: 2684042094783235117, guid: f576ab6a7e2c87c4286765dab3a17ddf,
        type: 3}
      propertyPath: m_Materials.Array.data[0]
      value: 
      objectReference: {fileID: 2100000, guid: d0f0843c6ac55d04887d08ae26e5289f, type: 2}
    - target: {fileID: 2792743771679735235, guid: f576ab6a7e2c87c4286765dab3a17ddf,
        type: 3}
      propertyPath: m_Materials.Array.data[0]
      value: 
      objectReference: {fileID: 2100000, guid: d0f0843c6ac55d04887d08ae26e5289f, type: 2}
    - target: {fileID: 3035399398543069848, guid: f576ab6a7e2c87c4286765dab3a17ddf,
        type: 3}
      propertyPath: m_Materials.Array.data[0]
      value: 
      objectReference: {fileID: 2100000, guid: d0f0843c6ac55d04887d08ae26e5289f, type: 2}
    - target: {fileID: 3142450409774831006, guid: f576ab6a7e2c87c4286765dab3a17ddf,
        type: 3}
      propertyPath: m_Materials.Array.data[0]
      value: 
      objectReference: {fileID: 2100000, guid: d0f0843c6ac55d04887d08ae26e5289f, type: 2}
    - target: {fileID: 3221119980153950235, guid: f576ab6a7e2c87c4286765dab3a17ddf,
        type: 3}
      propertyPath: m_Materials.Array.data[0]
      value: 
      objectReference: {fileID: 2100000, guid: d0f0843c6ac55d04887d08ae26e5289f, type: 2}
    - target: {fileID: 3862726560960221712, guid: f576ab6a7e2c87c4286765dab3a17ddf,
        type: 3}
      propertyPath: m_Materials.Array.data[0]
      value: 
      objectReference: {fileID: 2100000, guid: d0f0843c6ac55d04887d08ae26e5289f, type: 2}
    - target: {fileID: 4407642092317294705, guid: f576ab6a7e2c87c4286765dab3a17ddf,
        type: 3}
      propertyPath: m_Materials.Array.data[0]
      value: 
      objectReference: {fileID: 2100000, guid: d0f0843c6ac55d04887d08ae26e5289f, type: 2}
    - target: {fileID: 4634565506033793252, guid: f576ab6a7e2c87c4286765dab3a17ddf,
        type: 3}
      propertyPath: m_Materials.Array.data[0]
      value: 
      objectReference: {fileID: 2100000, guid: d0f0843c6ac55d04887d08ae26e5289f, type: 2}
    - target: {fileID: 5308714089799146267, guid: f576ab6a7e2c87c4286765dab3a17ddf,
        type: 3}
      propertyPath: m_Materials.Array.data[0]
      value: 
      objectReference: {fileID: 2100000, guid: d0f0843c6ac55d04887d08ae26e5289f, type: 2}
    - target: {fileID: 5776233639140169349, guid: f576ab6a7e2c87c4286765dab3a17ddf,
        type: 3}
      propertyPath: m_Materials.Array.data[0]
      value: 
      objectReference: {fileID: 2100000, guid: 1879d016620a61f47b93b7953a5c1818, type: 2}
    - target: {fileID: 7374025274598657644, guid: f576ab6a7e2c87c4286765dab3a17ddf,
        type: 3}
      propertyPath: m_IsActive
      value: 0
      objectReference: {fileID: 0}
    m_RemovedComponents: []
  m_SourcePrefab: {fileID: 100100000, guid: f576ab6a7e2c87c4286765dab3a17ddf, type: 3}
--- !u!1 &8635328716147894485 stripped
GameObject:
  m_CorrespondingSourceObject: {fileID: 919132149155446097, guid: f576ab6a7e2c87c4286765dab3a17ddf,
    type: 3}
  m_PrefabInstance: {fileID: 8869751946495694212}
  m_PrefabAsset: {fileID: 0}
--- !u!4 &8979343246803726959 stripped
Transform:
  m_CorrespondingSourceObject: {fileID: -8679921383154817045, guid: f576ab6a7e2c87c4286765dab3a17ddf,
    type: 3}
  m_PrefabInstance: {fileID: 8869751946495694212}
  m_PrefabAsset: {fileID: 0}
