%YAML 1.1
%TAG !u! tag:unity3d.com,2011:
--- !u!114 &11400000
MonoBehaviour:
  m_ObjectHideFlags: 0
  m_CorrespondingSourceObject: {fileID: 0}
  m_PrefabInstance: {fileID: 0}
  m_PrefabAsset: {fileID: 0}
  m_GameObject: {fileID: 0}
  m_Enabled: 1
  m_EditorHideFlags: 0
  m_Script: {fileID: 11500000, guid: c5cd0094b7ab8a04d99f10c449164259, type: 3}
  m_Name: 17 - The Star
  m_EditorClassIdentifier: 
  cardName: The Star
  cardImage: {fileID: 0}
  cardDescription: 
  cardIdNo: 17
  cardPrefab: {fileID: 2490270574753898912, guid: b6b6188cb0fa65949800baf9084216c4,
    type: 3}
