%YAML 1.1
%TAG !u! tag:unity3d.com,2011:
--- !u!114 &11400000
MonoBehaviour:
  m_ObjectHideFlags: 0
  m_CorrespondingSourceObject: {fileID: 0}
  m_PrefabInstance: {fileID: 0}
  m_PrefabAsset: {fileID: 0}
  m_GameObject: {fileID: 0}
  m_Enabled: 1
  m_EditorHideFlags: 0
  m_Script: {fileID: 11500000, guid: c5cd0094b7ab8a04d99f10c449164259, type: 3}
  m_Name: 20 - Judgement
  m_EditorClassIdentifier: 
  cardName: Judgement
  cardImage: {fileID: 0}
  cardDescription: 
  cardIdNo: 20
  cardPrefab: {fileID: 91911064184379608, guid: 8332e95636716734783ce8e28c67c1ab,
    type: 3}
