%YAML 1.1
%TAG !u! tag:unity3d.com,2011:
--- !u!114 &11400000
MonoBehaviour:
  m_ObjectHideFlags: 0
  m_CorrespondingSourceObject: {fileID: 0}
  m_PrefabInstance: {fileID: 0}
  m_PrefabAsset: {fileID: 0}
  m_GameObject: {fileID: 0}
  m_Enabled: 1
  m_EditorHideFlags: 0
  m_Script: {fileID: 11500000, guid: c5cd0094b7ab8a04d99f10c449164259, type: 3}
  m_Name: 9 - The Hermit
  m_EditorClassIdentifier: 
  cardName: The Hermit
  cardImage: {fileID: 0}
  cardDescription: 
  cardIdNo: 9
  cardPrefab: {fileID: 6292388352803017906, guid: cc971f5d264381b4f9734f0bc324b8b8,
    type: 3}
