%YAML 1.1
%TAG !u! tag:unity3d.com,2011:
--- !u!1045 &1
EditorBuildSettings:
  m_ObjectHideFlags: 0
  serializedVersion: 2
  m_Scenes:
  - enabled: 1
    path: Assets/Scenes/Lobby.unity
    guid: b2af814d4155c7f4bb3ef1062d2ee9a1
  - enabled: 0
    path: Assets/Scenes/SeanceSpace_Scene.unity
    guid: 9e17e35ad78ca40429a434e447caf070
  - enabled: 1
    path: Assets/Scenes/SeanceSpace_MainScene.unity
    guid: f57af713a6844b34dbcfca295924a5d8
  m_configObjects: {}
