%YAML 1.1
%TAG !u! tag:unity3d.com,2011:
--- !u!21 &2100000
Material:
  serializedVersion: 6
  m_ObjectHideFlags: 0
  m_PrefabParentObject: {fileID: 0}
  m_PrefabInternal: {fileID: 0}
  m_Name: Monk_Head - Skin Shader
  m_Shader: {fileID: 4800000, guid: 1ab69c7fdba26324aadec3b99314095a, type: 3}
  m_ShaderKeywords: _METALLICGLOSSMAP _NORMALMAP _SPECGLOSSMAP
  m_LightmapFlags: 5
  m_CustomRenderQueue: 2000
  stringTagMap: {}
  m_SavedProperties:
    serializedVersion: 2
    m_TexEnvs:
      data:
        first:
          name: _MainTex
        second:
          m_Texture: {fileID: 2800000, guid: 543b4cb418b9b8b44ac2e69de8cfd253, type: 3}
          m_Scale: {x: 1, y: 1}
          m_Offset: {x: 0, y: 0}
      data:
        first:
          name: _BumpMap
        second:
          m_Texture: {fileID: 2800000, guid: 542c4d995938aa2458bee10b356f3711, type: 3}
          m_Scale: {x: 1, y: 1}
          m_Offset: {x: 0, y: 0}
      data:
        first:
          name: _DetailNormalMap
        second:
          m_Texture: {fileID: 0}
          m_Scale: {x: 1, y: 1}
          m_Offset: {x: 0, y: 0}
      data:
        first:
          name: _SpecularMap
        second:
          m_Texture: {fileID: 2800000, guid: ff0c6ab68f28fdf49b3c1891571dbc3e, type: 3}
          m_Scale: {x: 1, y: 1}
          m_Offset: {x: 0, y: 0}
      data:
        first:
          name: _GlossinessMap
        second:
          m_Texture: {fileID: 2800000, guid: 656a0a7088313a0499b748cf76a29349, type: 3}
          m_Scale: {x: 1, y: 1}
          m_Offset: {x: 0, y: 0}
      data:
        first:
          name: _DispTex
        second:
          m_Texture: {fileID: 0}
          m_Scale: {x: 1, y: 1}
          m_Offset: {x: 0, y: 0}
      data:
        first:
          name: _SkinMask
        second:
          m_Texture: {fileID: 0}
          m_Scale: {x: 1, y: 1}
          m_Offset: {x: 0, y: 0}
      data:
        first:
          name: _DepthMap
        second:
          m_Texture: {fileID: 2800000, guid: a63bb9cdb780d6b4e8999d5fb2f6f186, type: 3}
          m_Scale: {x: 1, y: 1}
          m_Offset: {x: 0, y: 0}
      data:
        first:
          name: _TranslucencyMap
        second:
          m_Texture: {fileID: 0}
          m_Scale: {x: 1, y: 1}
          m_Offset: {x: 0, y: 0}
      data:
        first:
          name: _LookupTranslucency
        second:
          m_Texture: {fileID: 2800000, guid: 5ba1a411c0c534d49a8cfe16a265c912, type: 3}
          m_Scale: {x: 1, y: 1}
          m_Offset: {x: 0, y: 0}
      data:
        first:
          name: _LookupDiffuseSpec
        second:
          m_Texture: {fileID: 2800000, guid: 2b455fb156396cb45b093d3778f3a4d7, type: 3}
          m_Scale: {x: 1, y: 1}
          m_Offset: {x: 0, y: 0}
      data:
        first:
          name: _SpecGlosAOMap
        second:
          m_Texture: {fileID: 0}
          m_Scale: {x: 1, y: 1}
          m_Offset: {x: 0, y: 0}
      data:
        first:
          name: _PSSProfile
        second:
          m_Texture: {fileID: 2800012, guid: 7fd77f3f5f1573448ad9ef10443a3430, type: 2}
          m_Scale: {x: 1, y: 1}
          m_Offset: {x: 0, y: 0}
      data:
        first:
          name: _LookupDirect
        second:
          m_Texture: {fileID: 2800000, guid: ee7a7f61be8cb4f41bd6c6888fd1719f, type: 2}
          m_Scale: {x: 1, y: 1}
          m_Offset: {x: 0, y: 0}
      data:
        first:
          name: _LookupDirectSM2
        second:
          m_Texture: {fileID: 2800000, guid: c82ac15d8e3571f44b48e20691d6fbf2, type: 2}
          m_Scale: {x: 1, y: 1}
          m_Offset: {x: 0, y: 0}
      data:
        first:
          name: _LookupSH
        second:
          m_Texture: {fileID: 2800000, guid: 64d7e30d253aba54794616efab10bb94, type: 2}
          m_Scale: {x: 1, y: 1}
          m_Offset: {x: 0, y: 0}
      data:
        first:
          name: _LookupSpecAO
        second:
          m_Texture: {fileID: 2800000, guid: 0978e19c24154c048a16e819aa87d3f1, type: 2}
          m_Scale: {x: 1, y: 1}
          m_Offset: {x: 0, y: 0}
      data:
        first:
          name: _AmbientOcclusionTex
        second:
          m_Texture: {fileID: 2800000, guid: 3d83c3d59d925b44e88529b37e6c7a96, type: 3}
          m_Scale: {x: 1, y: 1}
          m_Offset: {x: 0, y: 0}
      data:
        first:
          name: _SpecGlosDepthMap
        second:
          m_Texture: {fileID: 0}
          m_Scale: {x: 1, y: 1}
          m_Offset: {x: 0, y: 0}
      data:
        first:
          name: _ParallaxMap
        second:
          m_Texture: {fileID: 0}
          m_Scale: {x: 1, y: 1}
          m_Offset: {x: 0, y: 0}
      data:
        first:
          name: _OcclusionMap
        second:
          m_Texture: {fileID: 2800000, guid: 3d83c3d59d925b44e88529b37e6c7a96, type: 3}
          m_Scale: {x: 1, y: 1}
          m_Offset: {x: 0, y: 0}
      data:
        first:
          name: _EmissionMap
        second:
          m_Texture: {fileID: 2800000, guid: 3d83c3d59d925b44e88529b37e6c7a96, type: 3}
          m_Scale: {x: 1, y: 1}
          m_Offset: {x: 0, y: 0}
      data:
        first:
          name: _DetailMask
        second:
          m_Texture: {fileID: 0}
          m_Scale: {x: 1, y: 1}
          m_Offset: {x: 0, y: 0}
      data:
        first:
          name: _DetailAlbedoMap
        second:
          m_Texture: {fileID: 0}
          m_Scale: {x: 1, y: 1}
          m_Offset: {x: 0, y: 0}
      data:
        first:
          name: _MetallicGlossMap
        second:
          m_Texture: {fileID: 2800000, guid: ff0c6ab68f28fdf49b3c1891571dbc3e, type: 3}
          m_Scale: {x: 1, y: 1}
          m_Offset: {x: 0, y: 0}
      data:
        first:
          name: _SpecGlossMap
        second:
          m_Texture: {fileID: 2800000, guid: ff0c6ab68f28fdf49b3c1891571dbc3e, type: 3}
          m_Scale: {x: 1, y: 1}
          m_Offset: {x: 0, y: 0}
      data:
        first:
          name: _LookupSHSM2
        second:
          m_Texture: {fileID: 2800000, guid: cdfb09254acaac645b3e2d5c35968c6b, type: 2}
          m_Scale: {x: 1, y: 1}
          m_Offset: {x: 0, y: 0}
    m_Floats:
      data:
        first:
          name: _SrcBlend
        second: 1
      data:
        first:
          name: _DstBlend
        second: 0
      data:
        first:
          name: _Cutoff
        second: .5
      data:
        first:
          name: _Shininess
        second: .078125
      data:
        first:
          name: _BackRimStrength
        second: 0
      data:
        first:
          name: _BackRimSmoothness
        second: 20
      data:
        first:
          name: _BackRimWidth
        second: 0
      data:
        first:
          name: _FrontRimStrength
        second: 0
      data:
        first:
          name: _FrontRimSmoothness
        second: 20
      data:
        first:
          name: _FrontRimWidth
        second: 0
      data:
        first:
          name: _BumpinessDR
        second: .115384616
      data:
        first:
          name: _BumpinessDG
        second: .755494416
      data:
        first:
          name: _BumpinessDB
        second: .810439467
      data:
        first:
          name: _FresnelSkin
        second: .0280000009
      data:
        first:
          name: _FresnelMasked
        second: .00999999978
      data:
        first:
          name: _Bumpiness
        second: .707692504
      data:
        first:
          name: _SpecIntensity
        second: .0599999987
      data:
        first:
          name: _SpecRoughness
        second: .936538458
      data:
        first:
          name: _DisplacementScale
        second: 0
      data:
        first:
          name: _DisplacementOffset
        second: 0
      data:
        first:
          name: _EdgeLength
        second: 2
      data:
        first:
          name: _Phong
        second: .423076928
      data:
        first:
          name: _TessDivisions
        second: 5.76923037
      data:
        first:
          name: _TessRadius
        second: .0576923043
      data:
        first:
          name: _TessCullAngle
        second: 2
      data:
        first:
          name: _ScatteringOffset
        second: .0820000023
      data:
        first:
          name: _ScatteringPower
        second: .479999989
      data:
        first:
          name: _TranslucencyOffset
        second: .560000002
      data:
        first:
          name: _TranslucencyPower
        second: .629999995
      data:
        first:
          name: _TranslucencyRadius
        second: .720000029
      data:
        first:
          name: _
        second: 0
      data:
        first:
          name: _SpecBlur
        second: 1
      data:
        first:
          name: _SpecEnvMapIntensity
        second: 1
      data:
        first:
          name: _SpecGlossiness
        second: .50999999
      data:
        first:
          name: _TranslucencyScale
        second: .689999998
      data:
        first:
          name: _AmbientOcclusionStrength
        second: 1
      data:
        first:
          name: _AmbientOcclusionLightSuppression
        second: 1
      data:
        first:
          name: _PSSInternalExpanded
        second: 0
      data:
        first:
          name: _AmbientOcclusionScattering
        second: 1
      data:
        first:
          name: _Metallic
        second: 0
      data:
        first:
          name: _Parallax
        second: .0199999996
      data:
        first:
          name: _ZWrite
        second: 1
      data:
        first:
          name: _Glossiness
        second: .294999987
      data:
        first:
          name: _BumpScale
        second: 1
      data:
        first:
          name: _OcclusionStrength
        second: 1
      data:
        first:
          name: _DetailNormalMapScale
        second: 1
      data:
        first:
          name: _UVSec
        second: 0
      data:
        first:
          name: _Mode
        second: 0
    m_Colors:
      data:
        first:
          name: _EmissionColor
        second: {r: 9.99999975e-05, g: 0, b: 0, a: 1}
      data:
        first:
          name: _Color
        second: {r: .731343269, g: .731343269, b: .731343269, a: 1}
      data:
        first:
          name: _SpecColor
        second: {r: .5, g: .5, b: .5, a: 1}
      data:
        first:
          name: _TranslucencyColor
        second: {r: 1, g: 1, b: 1, a: 1}
      data:
        first:
          name: _BlurRange
        second: {r: 0, g: 2, b: 0, a: 0}
      data:
        first:
          name: _PSSProfileHigh_weighths1_var1
        second: {r: .000714324589, g: .00140440569, b: .669198155, a: .0299999993}
      data:
        first:
          name: _PSSProfileHigh_weighths2_var2
        second: {r: .000714324589, g: .289427191, b: .15745838, a: .0149999997}
      data:
        first:
          name: _PSSProfileHigh_weighths3_var3
        second: {r: .0741513222, g: .413060457, b: .122165985, a: .075000003}
      data:
        first:
          name: _PSSProfileHigh_weighths4_var4
        second: {r: .173328742, g: .268887252, b: .038206812, a: .075000003}
      data:
        first:
          name: _PSSProfileHigh_weighths5_var5
        second: {r: .10504774, g: .0258162823, b: .0123014385, a: .50999999}
      data:
        first:
          name: _PSSProfileHigh_weighths6_var6
        second: {r: .646043539, g: .00140440569, b: .000669198227, a: 2.41000009}
      data:
        first:
          name: _PSSProfileHigh_sqrtvar1234
        second: {r: .173205078, g: .122474484, b: .273861289, a: .273861289}
      data:
        first:
          name: _PSSProfileHigh_transl123_sqrtvar5
        second: {r: -48.0898361, g: -96.1796722, b: -19.2359333, a: .714142859}
      data:
        first:
          name: _PSSProfileHigh_transl456_sqrtvar6
        second: {r: -19.2359333, g: -2.82881379, b: -.59862864, a: 1.55241752}
      data:
        first:
          name: _PSSProfileMedium_weighths1_var1
        second: {r: .00142864918, g: .290831596, b: .82665652, a: .0193706378}
      data:
        first:
          name: _PSSProfileMedium_weighths2_var2
        second: {r: .247480065, g: .681947708, b: .160372794, a: .075000003}
      data:
        first:
          name: _PSSProfileMedium_weighths3_var3
        second: {r: .751091301, g: .0272206888, b: .0129706366, a: 2.03346109}
      data:
        first:
          name: _PSSProfileMedium_transl123
        second: {r: -74.478447, g: -19.2359333, b: -.709477544, a: 0}
      data:
        first:
          name: _PSSProfileMedium_sqrtvar123
        second: {r: .13917844, g: .273861289, b: 1.42599475, a: 0}
      data:
        first:
          name: _PSSProfileLow_weighths1_var1
        second: {r: .0755799711, g: .703892052, b: .948822498, a: .0478593037}
      data:
        first:
          name: _PSSProfileLow_weighths2_var2
        second: {r: .924419999, g: .296107948, b: .0511774495, a: 1.11438596}
      data:
        first:
          name: _PSSProfileLow_sqrtvar12
        second: {r: .175999999, g: 1.54799998, b: 0, a: 0}
      data:
        first:
          name: _PSSProfileLow_transl
        second: {r: -1.03869998, g: -35.9269981, b: -55.5040016, a: 0}
      data:
        first:
          name: _PSSProfileLow_transl12_sqrtvar12
        second: {r: -30.1445045, g: -1.29460979, b: .218767688, a: 1.05564475}
      data:
        first:
          name: _PSSProfileUgly_transrgb
        second: {r: -.885560274, g: -20.0150394, b: -34.0641632, a: 0}
