%YAML 1.1
%TAG !u! tag:unity3d.com,2011:
--- !u!114 &11400000
MonoBehaviour:
  m_ObjectHideFlags: 0
  m_CorrespondingSourceObject: {fileID: 0}
  m_PrefabInstance: {fileID: 0}
  m_PrefabAsset: {fileID: 0}
  m_GameObject: {fileID: 0}
  m_Enabled: 1
  m_EditorHideFlags: 0
  m_Script: {fileID: 11500000, guid: f94c8b4e1710ca34e8bd4ff3d082c53f, type: 3}
  m_Name: Bear
  m_EditorClassIdentifier: 
  animalName: 
  sound1: {fileID: 8300000, guid: 4a1a9c5aa0b52c4429a44cb126ec335c, type: 3}
